Apr 10, 2015 7:14:47 AM com.sun.jersey.api.core.PackagesResourceConfig init
INFO: Scanning for root resource and provider classes in the packages:
  org.apache.hadoop.hdfs.server.namenode.web.resources
  org.apache.hadoop.hdfs.web.resources
Apr 10, 2015 7:14:48 AM com.sun.jersey.api.core.ScanningResourceConfig logClasses
INFO: Root resource classes found:
  class org.apache.hadoop.hdfs.server.namenode.web.resources.NamenodeWebHdfsMethods
Apr 10, 2015 7:14:48 AM com.sun.jersey.api.core.ScanningResourceConfig logClasses
INFO: Provider classes found:
  class org.apache.hadoop.hdfs.web.resources.UserProvider
  class org.apache.hadoop.hdfs.web.resources.ExceptionHandler
Apr 10, 2015 7:14:48 AM com.sun.jersey.server.impl.application.WebApplicationImpl _initiate
INFO: Initiating Jersey application, version 'Jersey: 1.9 09/02/2011 11:17 AM'
Apr 10, 2015 7:14:49 AM com.sun.jersey.spi.inject.Errors processErrorMessages
WARNING: The following warnings have been detected with resource and/or provider classes:
  WARNING: A sub-resource method, public javax.ws.rs.core.Response org.apache.hadoop.hdfs.server.namenode.web.resources.NamenodeWebHdfsMethods.postRoot(org.apache.hadoop.security.UserGroupInformation,org.apache.hadoop.hdfs.web.resources.DelegationParam,org.apache.hadoop.hdfs.web.resources.UserParam,org.apache.hadoop.hdfs.web.resources.DoAsParam,org.apache.hadoop.hdfs.web.resources.PostOpParam,org.apache.hadoop.hdfs.web.resources.ConcatSourcesParam,org.apache.hadoop.hdfs.web.resources.BufferSizeParam) throws java.io.IOException,java.lang.InterruptedException, with URI template, "/", is treated as a resource method
  WARNING: A sub-resource method, public javax.ws.rs.core.Response org.apache.hadoop.hdfs.server.namenode.web.resources.NamenodeWebHdfsMethods.deleteRoot(org.apache.hadoop.security.UserGroupInformation,org.apache.hadoop.hdfs.web.resources.DelegationParam,org.apache.hadoop.hdfs.web.resources.UserParam,org.apache.hadoop.hdfs.web.resources.DoAsParam,org.apache.hadoop.hdfs.web.resources.DeleteOpParam,org.apache.hadoop.hdfs.web.resources.RecursiveParam) throws java.io.IOException,java.lang.InterruptedException, with URI template, "/", is treated as a resource method
  WARNING: A sub-resource method, public javax.ws.rs.core.Response org.apache.hadoop.hdfs.server.namenode.web.resources.NamenodeWebHdfsMethods.putRoot(org.apache.hadoop.security.UserGroupInformation,org.apache.hadoop.hdfs.web.resources.DelegationParam,org.apache.hadoop.hdfs.web.resources.UserParam,org.apache.hadoop.hdfs.web.resources.DoAsParam,org.apache.hadoop.hdfs.web.resources.PutOpParam,org.apache.hadoop.hdfs.web.resources.DestinationParam,org.apache.hadoop.hdfs.web.resources.OwnerParam,org.apache.hadoop.hdfs.web.resources.GroupParam,org.apache.hadoop.hdfs.web.resources.PermissionParam,org.apache.hadoop.hdfs.web.resources.OverwriteParam,org.apache.hadoop.hdfs.web.resources.BufferSizeParam,org.apache.hadoop.hdfs.web.resources.ReplicationParam,org.apache.hadoop.hdfs.web.resources.BlockSizeParam,org.apache.hadoop.hdfs.web.resources.ModificationTimeParam,org.apache.hadoop.hdfs.web.resources.AccessTimeParam,org.apache.hadoop.hdfs.web.resources.RenameOptionSetParam,org.apache.hadoop.hdfs.web.resources.CreateParentParam,org.apache.hadoop.hdfs.web.resources.TokenArgumentParam,org.apache.hadoop.hdfs.web.resources.AclPermissionParam) throws java.io.IOException,java.lang.InterruptedException, with URI template, "/", is treated as a resource method
  WARNING: A sub-resource method, public javax.ws.rs.core.Response org.apache.hadoop.hdfs.server.namenode.web.resources.NamenodeWebHdfsMethods.getRoot(org.apache.hadoop.security.UserGroupInformation,org.apache.hadoop.hdfs.web.resources.DelegationParam,org.apache.hadoop.hdfs.web.resources.UserParam,org.apache.hadoop.hdfs.web.resources.DoAsParam,org.apache.hadoop.hdfs.web.resources.GetOpParam,org.apache.hadoop.hdfs.web.resources.OffsetParam,org.apache.hadoop.hdfs.web.resources.LengthParam,org.apache.hadoop.hdfs.web.resources.RenewerParam,org.apache.hadoop.hdfs.web.resources.BufferSizeParam) throws java.io.IOException,java.lang.InterruptedException, with URI template, "/", is treated as a resource method
